<svg xmlns="http://www.w3.org/2000/svg" width="48" height="48" viewBox="0 0 48 48">
    <g class="nc-icon-wrapper">
        <circle cx="9" cy="9" r="5" fill="#b7e3fc"/>
        <circle cx="24" cy="9" r="5" fill="#47b0ea"/>
        <circle cx="39" cy="9" r="5" fill="#b7e3fc"/>
        <circle cx="9" cy="24" r="5" fill="#47b0ea"/>
        <circle cx="24" cy="24" r="5" fill="#b7e3fc"/>
        <circle cx="39" cy="24" r="5" fill="#47b0ea"/>
        <circle cx="9" cy="39" r="5" fill="#b7e3fc"/>
        <circle cx="24" cy="39" r="5" fill="#47b0ea"/>
        <circle cx="39" cy="39" r="5" fill="#b7e3fc"/>
        <circle cx="28" cy="20" r="3" fill="#ed7064"/>
    </g>
</svg>
